date	size'/'remotesize	flags(request:Update,Range state:File response:Modified,Chunked,gZipped)	statuscode	status ('servermsg')	MIME	Etag|Date	URL	localfile	(from URL)
20:47:13	315/315	---M--	404	error ('Not%20Found')	text/html	date:Wed,%2003%20Mar%202021%2019:47:13%20GMT	https://swirge.com/robots.txt		(from )
20:47:13	18915/18915	---M--	200	added ('OK')	text/html	date:Wed,%2016%20Dec%202020%2022:57:47%20GMT	https://swirge.com/	/home/mosco/websites/swirge.com/swirge.com/index.html	(from )
20:47:16	53024/53024	---M--	200	added ('OK')	image/png	date:Tue,%2017%20Nov%202020%2012:48:57%20GMT	https://app.swirge.com/themes/wondertag/img/icon.png	/home/mosco/websites/swirge.com/app.swirge.com/themes/wondertag/img/icon.png	(from https://swirge.com/)
20:47:18	144877/144877	---M--	200	added ('OK')	text/css	date:Mon,%2029%20Jan%202018%2013:01:28%20GMT	https://swirge.com/assets/css/bootstrap.min.css	/home/mosco/websites/swirge.com/swirge.com/assets/css/bootstrap.min.css	(from https://swirge.com/)
20:47:19	24315/24315	---M--	200	added ('OK')	text/css	date:Tue,%2015%20Dec%202020%2000:17:53%20GMT	https://swirge.com/assets/css/style.css	/home/mosco/websites/swirge.com/swirge.com/assets/css/style.css	(from https://swirge.com/)
20:47:19	926/926	---M--	200	added ('OK')	text/css	date:Sun,%2008%20Mar%202020%2014:13:04%20GMT	https://swirge.com/assets/css/accordian.css	/home/mosco/websites/swirge.com/swirge.com/assets/css/accordian.css	(from https://swirge.com/)
20:47:20	3351/3351	---M--	200	added ('OK')	text/css	date:Wed,%2026%20Feb%202020%2012:25:32%20GMT	https://swirge.com/assets/css/owl/owl.carousel.min.css	/home/mosco/websites/swirge.com/swirge.com/assets/css/owl/owl.carousel.min.css	(from https://swirge.com/)
20:47:21	1013/1013	---M--	200	added ('OK')	text/css	date:Wed,%2026%20Feb%202020%2012:25:32%20GMT	https://swirge.com/assets/css/owl/owl.theme.default.min.css	/home/mosco/websites/swirge.com/swirge.com/assets/css/owl/owl.theme.default.min.css	(from https://swirge.com/)
20:47:24	31000/31000	---M-Z	200	added ('OK')	text/css	etag:%225eb03e5f-7918%22	https://cdnjs.cloudflare.com/ajax/libs/font-awesome/4.7.0/css/font-awesome.min.css	/home/mosco/websites/swirge.com/cdnjs.cloudflare.com/ajax/libs/font-awesome/4.7.0/css/font-awesome.min.css	(from https://swirge.com/)
20:47:26	1304/1304	---MC-	200	added ('OK')	text/css	date:Wed,%2003%20Mar%202021%2019:47:25%20GMT	https://fonts.googleapis.com/css?family=Montserrat:300,400,500,600,700,800&display=swap	/home/mosco/websites/swirge.com/fonts.googleapis.com/css6813.css	(from https://swirge.com/)
20:47:27	1244/1244	---MC-	200	added ('OK')	text/css	date:Wed,%2003%20Mar%202021%2019:47:26%20GMT	https://fonts.googleapis.com/css?family=Poppins:300,400,500,600,700,800&display=swap	/home/mosco/websites/swirge.com/fonts.googleapis.com/cssd3c3.css	(from https://swirge.com/)
20:47:28	86927/86927	---M--	200	added ('OK')	text/javascript	date:Tue,%2003%20Mar%202020%2019:15:00%20GMT	https://ajax.googleapis.com/ajax/libs/jquery/3.3.1/jquery.min.js	/home/mosco/websites/swirge.com/ajax.googleapis.com/ajax/libs/jquery/3.3.1/jquery.min.js	(from https://swirge.com/)
20:47:29	788/788	---M--	200	added ('OK')	application/javascript	date:Fri,%2006%20Mar%202020%2019:51:06%20GMT	https://swirge.com/assets/js/smoothscroll.js	/home/mosco/websites/swirge.com/swirge.com/assets/js/smoothscroll.js	(from https://swirge.com/)
20:47:31	18962/18962	---M--	200	added ('OK')	image/png	date:Mon,%2014%20Dec%202020%2022:39:38%20GMT	https://swirge.com/assets/images/Sirge%20logo%20horzontal%20black.png	/home/mosco/websites/swirge.com/swirge.com/assets/images/Sirge%20logo%20horzontal%20black.png	(from https://swirge.com/)
20:47:32	72431/72431	---M--	200	added ('OK')	image/png	date:Sun,%2008%20Mar%202020%2014:57:42%20GMT	https://swirge.com/assets/images/header.png	/home/mosco/websites/swirge.com/swirge.com/assets/images/header.png	(from https://swirge.com/)
20:47:33	26093/26093	---M--	200	added ('OK')	image/png	etag:%2265ed-5a1302b8-c0b6cde5fd8b8637;;;%22	https://freeiconshop.com/wp-content/uploads/edd/google-play-badge.png	/home/mosco/websites/swirge.com/freeiconshop.com/wp-content/uploads/edd/google-play-badge.png	(from https://swirge.com/)
20:47:34	25408/25408	---M--	200	added ('OK')	image/png	etag:%226340-5a130073-c330059e943a7ef0;;;%22	https://freeiconshop.com/wp-content/uploads/edd/app-store-badge.png	/home/mosco/websites/swirge.com/freeiconshop.com/wp-content/uploads/edd/app-store-badge.png	(from https://swirge.com/)
20:47:34	17499/17499	---M--	200	added ('OK')	image/png	date:Sun,%2008%20Mar%202020%2015:00:08%20GMT	https://swirge.com/assets/images/strategy-section-bg.png	/home/mosco/websites/swirge.com/swirge.com/assets/images/strategy-section-bg.png	(from https://swirge.com/)
20:47:35	3406/3406	---M--	200	added ('OK')	image/png	date:Wed,%2026%20Feb%202020%2012:25:32%20GMT	https://swirge.com/assets/images/strategy-1.png	/home/mosco/websites/swirge.com/swirge.com/assets/images/strategy-1.png	(from https://swirge.com/)
20:47:36	3347/3347	---M--	200	added ('OK')	image/png	date:Wed,%2026%20Feb%202020%2012:25:32%20GMT	https://swirge.com/assets/images/strategy-2.png	/home/mosco/websites/swirge.com/swirge.com/assets/images/strategy-2.png	(from https://swirge.com/)
20:47:37	2207/2207	---M--	200	added ('OK')	image/png	date:Wed,%2026%20Feb%202020%2012:25:32%20GMT	https://swirge.com/assets/images/strategy-3.png	/home/mosco/websites/swirge.com/swirge.com/assets/images/strategy-3.png	(from https://swirge.com/)
20:47:38	4358/4358	---M--	200	added ('OK')	image/png	date:Wed,%2026%20Feb%202020%2012:25:34%20GMT	https://swirge.com/assets/images/strategy-4.png	/home/mosco/websites/swirge.com/swirge.com/assets/images/strategy-4.png	(from https://swirge.com/)
20:47:39	23457/23457	---M--	200	added ('OK')	image/png	date:Sun,%2008%20Mar%202020%2015:01:18%20GMT	https://swirge.com/assets/images/services-section-bg.png	/home/mosco/websites/swirge.com/swirge.com/assets/images/services-section-bg.png	(from https://swirge.com/)
20:47:41	65060/65060	---M--	200	added ('OK')	image/png	date:Sat,%2007%20Mar%202020%2007:58:38%20GMT	https://swirge.com/assets/images/services-header.png	/home/mosco/websites/swirge.com/swirge.com/assets/images/services-header.png	(from https://swirge.com/)
20:47:43	56172/56172	---M--	200	added ('OK')	image/png	date:Sat,%2007%20Mar%202020%2007:57:36%20GMT	https://swirge.com/assets/images/services-sales-header.png	/home/mosco/websites/swirge.com/swirge.com/assets/images/services-sales-header.png	(from https://swirge.com/)
20:47:43	68575/68575	---M--	200	added ('OK')	image/png	date:Wed,%2026%20Feb%202020%2012:25:32%20GMT	https://swirge.com/assets/images/contact-header-img.png	/home/mosco/websites/swirge.com/swirge.com/assets/images/contact-header-img.png	(from https://swirge.com/)
20:47:44	9395/9395	---M--	200	added ('OK')	image/png	date:Wed,%2026%20Feb%202020%2012:25:32%20GMT	https://swirge.com/assets/images/footer-section-bg.png	/home/mosco/websites/swirge.com/swirge.com/assets/images/footer-section-bg.png	(from https://swirge.com/)
20:47:45	20012/20012	---M--	200	added ('OK')	image/png	date:Mon,%2014%20Dec%202020%2023:31:02%20GMT	https://swirge.com/assets/images/Sirge%20logo%20horzontal%20white.png	/home/mosco/websites/swirge.com/swirge.com/assets/images/Sirge%20logo%20horzontal%20white.png	(from https://swirge.com/)
20:47:53	53024/53024	---M--	200	added ('OK')	image/x-icon	date:Sat,%2012%20Sep%202020%2017:21:59%20GMT	https://swirgepay.com/favicon.ico	/home/mosco/websites/swirge.com/swirgepay.com/favicon.ico	(from https://swirge.com/)
20:47:53	88145/88145	---M--	200	added ('OK')	text/javascript	date:Mon,%2013%20May%202019%2014:37:17%20GMT	https://ajax.googleapis.com/ajax/libs/jquery/3.4.1/jquery.min.js	/home/mosco/websites/swirge.com/ajax.googleapis.com/ajax/libs/jquery/3.4.1/jquery.min.js	(from https://swirge.com/)
20:47:55	21004/21004	---M-Z	200	added ('OK')	application/javascript	etag:%225eb03fa9-520c%22	https://cdnjs.cloudflare.com/ajax/libs/popper.js/1.14.7/umd/popper.min.js	/home/mosco/websites/swirge.com/cdnjs.cloudflare.com/ajax/libs/popper.js/1.14.7/umd/popper.min.js	(from https://swirge.com/)
20:47:56	58072/58072	---M-Z	200	added ('OK')	text/javascript	etag:%221550076057%22	https://maxcdn.bootstrapcdn.com/bootstrap/4.3.1/js/bootstrap.min.js	/home/mosco/websites/swirge.com/maxcdn.bootstrapcdn.com/bootstrap/4.3.1/js/bootstrap.min.js	(from https://swirge.com/)
20:48:00	89992/89992	---M--	200	added ('OK')	application/javascript	date:Wed,%2026%20Feb%202020%2012:25:34%20GMT	https://swirge.com/assets/js/owl/owl.carousel.js	/home/mosco/websites/swirge.com/swirge.com/assets/js/owl/owl.carousel.js	(from https://swirge.com/)
20:48:01	390/390	---M--	200	added ('OK')	application/javascript	date:Wed,%2026%20Feb%202020%2012:25:34%20GMT	https://swirge.com/assets/js/accordian.js	/home/mosco/websites/swirge.com/swirge.com/assets/js/accordian.js	(from https://swirge.com/)
20:48:02	51/51	---MCZ	200	added ('OK')	text/plain	date:Wed,%2003%20Mar%202021%2019:48:02%20GMT	https://fonts.googleapis.com/robots.txt		(from https://swirge.com/)
20:48:08	455/455	UR-MC-	416	error ('Requested%20Range%20Not%20Satisfiable')	text/html	date:Wed,%2003%20Mar%202021%2019:48:02%20GMT	https://swirge.com/assets/images/Sirge%20logo%20horzontal%20black.png	/home/mosco/websites/swirge.com/swirge.com/assets/images/Sirge%20logo%20horzontal%20black.png	(from https://swirge.com/)
20:48:08	455/455	UR-MC-	416	error ('Requested%20Range%20Not%20Satisfiable')	text/html	date:Wed,%2003%20Mar%202021%2019:48:02%20GMT	https://swirge.com/assets/js/smoothscroll.js	/home/mosco/websites/swirge.com/swirge.com/assets/js/smoothscroll.js	(from https://swirge.com/)
20:48:10	26093/26093	URF---	200	added ('OK%20(cached)')	image/png		https://freeiconshop.com/wp-content/uploads/edd/google-play-badge.png	/home/mosco/websites/swirge.com/freeiconshop.com/wp-content/uploads/edd/google-play-badge.png	(from https://swirge.com/)
20:48:10	25408/25408	URF---	200	added ('OK%20(cached)')	image/png		https://freeiconshop.com/wp-content/uploads/edd/app-store-badge.png	/home/mosco/websites/swirge.com/freeiconshop.com/wp-content/uploads/edd/app-store-badge.png	(from https://swirge.com/)
20:48:10	455/455	UR-MC-	416	error ('Requested%20Range%20Not%20Satisfiable')	text/html	date:Wed,%2003%20Mar%202021%2019:48:04%20GMT	https://swirge.com/assets/images/header.png	/home/mosco/websites/swirge.com/swirge.com/assets/images/header.png	(from https://swirge.com/)
20:48:10	86927/86927	URF---	200	added ('OK%20(cached)')	application/x-javascript		https://ajax.googleapis.com/ajax/libs/jquery/3.3.1/jquery.min.js	/home/mosco/websites/swirge.com/ajax.googleapis.com/ajax/libs/jquery/3.3.1/jquery.min.js	(from https://swirge.com/)
20:48:12	455/455	UR-MC-	416	error ('Requested%20Range%20Not%20Satisfiable')	text/html	date:Wed,%2003%20Mar%202021%2019:48:11%20GMT	https://swirge.com/assets/images/services-section-bg.png	/home/mosco/websites/swirge.com/swirge.com/assets/images/services-section-bg.png	(from https://swirge.com/)
20:48:12	2983/2983	---M--	200	added ('OK')	image/png	date:Sat,%2029%20Feb%202020%2004:15:12%20GMT	https://swirge.com/assets/images/menu.png	/home/mosco/websites/swirge.com/swirge.com/assets/images/menu.png	(from https://swirge.com/assets/css/style.css)
20:48:13	455/455	UR-MC-	416	error ('Requested%20Range%20Not%20Satisfiable')	text/html	date:Wed,%2003%20Mar%202021%2019:48:11%20GMT	https://swirge.com/assets/images/services-header.png	/home/mosco/websites/swirge.com/swirge.com/assets/images/services-header.png	(from https://swirge.com/)
20:48:13	455/455	UR-MC-	416	error ('Requested%20Range%20Not%20Satisfiable')	text/html	date:Wed,%2003%20Mar%202021%2019:48:12%20GMT	https://swirge.com/assets/images/contact-header-img.png	/home/mosco/websites/swirge.com/swirge.com/assets/images/contact-header-img.png	(from https://swirge.com/)
20:48:13	455/455	UR-MC-	416	error ('Requested%20Range%20Not%20Satisfiable')	text/html	date:Wed,%2003%20Mar%202021%2019:48:12%20GMT	https://swirge.com/assets/images/services-sales-header.png	/home/mosco/websites/swirge.com/swirge.com/assets/images/services-sales-header.png	(from https://swirge.com/)
20:48:13	455/455	UR-MC-	416	error ('Requested%20Range%20Not%20Satisfiable')	text/html	date:Wed,%2003%20Mar%202021%2019:48:13%20GMT	https://swirge.com/assets/images/footer-section-bg.png	/home/mosco/websites/swirge.com/swirge.com/assets/images/footer-section-bg.png	(from https://swirge.com/)
20:48:21	3346/3346	---M--	200	added ('OK')	image/png	date:Sat,%2007%20Mar%202020%2012:35:14%20GMT	https://swirge.com/assets/images/pricing-section-true.png	/home/mosco/websites/swirge.com/swirge.com/assets/images/pricing-section-true.png	(from https://swirge.com/assets/css/style.css)
20:48:22	455/455	UR-MC-	416	error ('Requested%20Range%20Not%20Satisfiable')	text/html	date:Wed,%2003%20Mar%202021%2019:48:15%20GMT	https://swirge.com/assets/images/Sirge%20logo%20horzontal%20white.png	/home/mosco/websites/swirge.com/swirge.com/assets/images/Sirge%20logo%20horzontal%20white.png	(from https://swirge.com/)
20:48:34	686/686	UR-M--	416	error ('Requested%20range%20not%20satisfiable')	text/html	date:Wed,%2003%20Mar%202021%2019:48:22%20GMT	https://swirgepay.com/favicon.ico	/home/mosco/websites/swirge.com/swirgepay.com/favicon.ico	(from https://swirge.com/)
20:48:34	88145/88145	URF---	200	added ('OK%20(cached)')	application/x-javascript		https://ajax.googleapis.com/ajax/libs/jquery/3.4.1/jquery.min.js	/home/mosco/websites/swirge.com/ajax.googleapis.com/ajax/libs/jquery/3.4.1/jquery.min.js	(from https://swirge.com/)
20:48:35	217/217	UR-M-Z	416	error ('Requested%20Range%20Not%20Satisfiable')	text/html	date:Wed,%2003%20Mar%202021%2019:48:23%20GMT	https://cdnjs.cloudflare.com/ajax/libs/popper.js/1.14.7/umd/popper.min.js	/home/mosco/websites/swirge.com/cdnjs.cloudflare.com/ajax/libs/popper.js/1.14.7/umd/popper.min.js	(from https://swirge.com/)
20:48:35	455/455	UR-MC-	416	error ('Requested%20Range%20Not%20Satisfiable')	text/html	date:Wed,%2003%20Mar%202021%2019:48:35%20GMT	https://swirge.com/assets/js/owl/owl.carousel.js	/home/mosco/websites/swirge.com/swirge.com/assets/js/owl/owl.carousel.js	(from https://swirge.com/)
20:48:36	3085/3085	---M--	200	added ('OK')	image/png	date:Fri,%2006%20Mar%202020%2023:50:42%20GMT	https://swirge.com/assets/images/pricing-section-false.png	/home/mosco/websites/swirge.com/swirge.com/assets/images/pricing-section-false.png	(from https://swirge.com/assets/css/style.css)
20:48:36	455/455	UR-MC-	416	error ('Requested%20Range%20Not%20Satisfiable')	text/html	date:Wed,%2003%20Mar%202021%2019:48:36%20GMT	https://swirge.com/assets/js/accordian.js	/home/mosco/websites/swirge.com/swirge.com/assets/js/accordian.js	(from https://swirge.com/)
20:48:36	315/315	---M--	404	error ('Not%20Found')	text/html	date:Wed,%2003%20Mar%202021%2019:48:36%20GMT	https://swirge.com/assets/css/owl/owl.video.play.png	/home/mosco/websites/swirge.com/swirge.com/assets/css/owl/owl.video.play.png	(from https://swirge.com/assets/css/owl/owl.carousel.min.css)
20:48:38	444379/444379	---M-Z	200	added ('OK')	image/svg+xml	etag:%225eb03e5f-6c7db%22	https://cdnjs.cloudflare.com/ajax/libs/font-awesome/4.7.0/fonts/fontawesome-webfont.svg?v=4.7.0	/home/mosco/websites/swirge.com/cdnjs.cloudflare.com/ajax/libs/font-awesome/4.7.0/fonts/fontawesome-webfont3e6e.svg	(from https://cdnjs.cloudflare.com/ajax/libs/font-awesome/4.7.0/css/font-awesome.min.css)
